CO2 Concentration Analysis
…
5 Yearly Average CO2 Concentration

Calculate the yearly average CO2 concentration.

# Calculate yearly average CO2 concentration
yearly_avg_co2 <- co2_cleaned %>%
  group_by(year) %>%
  summarise(mean_co2 = mean(monthly_average, na.rm = TRUE))

yearly_avg_co2

# A tibble: 60 × 2
    year mean_co2
   <dbl>    <dbl>
 1  1958     315.
 2  1959     316.
 3  1960     317.
 4  1961     318.
 5  1962     318.
 6  1963     319.
 7  1964     319.
 8  1965     320.
 9  1966     321.
10  1967     322.
# ℹ 50 more rows
…
